{"data":{"tasks":[{"id":"11d32847-9223-4303-a9c2-bb6689038f28","created_at":"2025-02-03T04:55:12.023762+00:00","user_id":"56a9904f-fe57-4841-a3d0-bbf617a88fea","name":"2.4.3.2.2.2.2.1.1.1.1.1.1.1.1.1.1.1.1.1.1.1.1 Implement Optimization Validation System","importance":54,"context":"Develop core validation mechanisms for the optimization system, including performance verification, resource utilization analysis, and adaptive validation strategies for maintaining optimal system performance across the distributed identity mesh network.","ai_context":"Implement an optimization validation system for distributed identity mesh networks by:\n- Integrating Cybersecurity Mesh Architecture (CSMA) for flexible, scalable security controls, leveraging AI for threat detection and automation.\n- Implementing Zero Trust Security via service mesh, focusing on authentication, authorization, mTLS, and identity verification.\n- Utilizing distributed autonomous self-organization for scalability, stability, and reduced maintenance.\n- Incorporating blockchain for identity management, using cryptographic algorithms and NFTs for secure, real-time authentication and attribute-based encryption.\n\n# Sources\nhttps://www.okta.com/identity-101/cybersecurity-mesh/\nhttps://spectralops.io/blog/secure-a-service-mesh-architecture/\nhttps://researchers.westernsydney.edu.au/en/publications/7b10b576-b871-4563-8eb9-c87c2e46f743\nhttps://aws.amazon.com/what-is/service-mesh/\nhttps://www.oaepublish.com/articles/jsss.2023.26","is_indexed":false,"status_text":null,"due_date":"2025-09-15T00:00:00+00:00","status":"active","kanban_column":"in-progress","recurring_cadence":null,"background_agent_status":"paused","last_worked_on":"2025-05-28T11:08:48.180345+00:00","recurrence":null,"completed_at":null,"search_indexed_at":"2025-04-05T23:33:00.629172+00:00","search_updated_at":null,"project_id":"03bf2236-58bf-4882-aced-ec7d60905157","search_vector":"'2.4.3.2.2.2.2.1.1.1.1.1.1.1.1.1.1.1.1.1.1.1.1':1A 'across':29B 'adapt':21B 'analysi':19B 'core':7B 'develop':6B 'distribut':31B 'ident':32B 'implement':2A 'includ':14B 'maintain':25B 'mechan':9B 'mesh':33B 'network':34B 'optim':3A,12B,26B 'perform':15B,28B 'resourc':17B 'strategi':23B 'system':5A,13B,27B 'util':18B 'valid':4A,8B,22B 'verif':16B","deleted_at":null,"project_team_id":null,"assignees":[],"assignee_ids":[],"is_personal_project":true,"is_due_today_or_past":false,"sort_bucket":3,"due_date_date":"2025-09-15","lex_key":null},{"id":"702a2aab-36cf-48db-a217-5b8763d5c531","created_at":"2025-02-03T04:55:21.859591+00:00","user_id":"56a9904f-fe57-4841-a3d0-bbf617a88fea","name":"2.4.3.2.2.2.2.1.1.1.1.1.1.1.1.1.1.1.1.1.1.1.1.1 Implement Validation Efficiency System","importance":53,"context":"Develop core efficiency mechanisms for the validation system, including performance optimization, resource management, and adaptive efficiency strategies for maintaining optimal validation performance across the distributed identity mesh network.","ai_context":"To implement the validation efficiency system:\n\n*   Utilize dynamic distributed authentication schemes to manage shared secrets automatically, reducing key management complexity and overhead.\n*   Implement a protocol that dynamically identifies existing shared keys and negotiates new secrets as network endpoints associate, enhancing adaptability.\n*   Distribute authentication and resource management across multiple nodes to avoid bottlenecks and single points of failure, unlike centralized AAA server models.\n*   Design the system to allow mesh networks to expand beyond single access points, enabling each mesh point to authenticate and associate, thereby distributing the validation workload.\n\n# Sources\nhttps://koasas.kaist.ac.kr/bitstream/10203/10946/1/04_Dynamic%20Distributed%20Authentication%20Scheme%20for%20Wireless%20LAN-Based%20Mesh%20Networks.pdf","is_indexed":false,"status_text":"","due_date":"2025-09-15T00:00:00+00:00","status":"active","kanban_column":"in-progress","recurring_cadence":null,"background_agent_status":"paused","last_worked_on":"2025-05-28T11:08:21.077025+00:00","recurrence":null,"completed_at":null,"search_indexed_at":"2025-04-05T23:33:00.629172+00:00","search_updated_at":null,"project_id":"03bf2236-58bf-4882-aced-ec7d60905157","search_vector":"'2.4.3.2.2.2.2.1.1.1.1.1.1.1.1.1.1.1.1.1.1.1.1.1':1A 'across':28B 'adapt':20B 'core':7B 'develop':6B 'distribut':30B 'effici':4A,8B,21B 'ident':31B 'implement':2A 'includ':14B 'maintain':24B 'manag':18B 'mechan':9B 'mesh':32B 'network':33B 'optim':16B,25B 'perform':15B,27B 'resourc':17B 'strategi':22B 'system':5A,13B 'valid':3A,12B,26B","deleted_at":null,"project_team_id":null,"assignees":[],"assignee_ids":[],"is_personal_project":true,"is_due_today_or_past":false,"sort_bucket":3,"due_date_date":"2025-09-15","lex_key":null},{"id":"5c678c88-6524-4631-8237-54ffdb52b81f","created_at":"2025-02-03T05:03:20.845617+00:00","user_id":"56a9904f-fe57-4841-a3d0-bbf617a88fea","name":"2.4.3.2.2.2.2.1.1.1.1.1.1.1.1.1.1.1.1.1.1.1.1.1.1 Implement Efficiency Monitoring System","importance":52,"context":"Develop core monitoring mechanisms for the validation efficiency system, including performance tracking, resource utilization monitoring, and adaptive optimization strategies for maintaining optimal efficiency across the distributed identity mesh network.","ai_context":"To implement an efficient monitoring system for the distributed identity mesh network:\n\n*   **Implement Adaptive Monitoring:** Use a threshold-based system where nodes send data only when needed, adjusting frequency and detail based on network conditions.\n*   **Aggregate Data at Cluster-Heads:** Summarize metrics like RSSI, noise levels, resource utilization, and client association data before forwarding to the central system.\n*   **Reduce Overhead:** Piggyback monitoring info on existing control messages and design lightweight, information-dense monitoring packets.\n*   **Continuous Monitoring:** Sample frequently (e.g., every 500ms) to proactively identify issues and establish performance baselines.\n*   **Centralized Dashboard:** Provide real-time visibility, performance visualization, alerting, and historical trend analysis for the distributed network.\n\n# Sources\nhttps://pmc.ncbi.nlm.nih.gov/articles/PMC6960639/\nhttps://www.dpss.inesc-id.pt/~ler/reports/ricardopinto-midterm.pdf\nhttps://www.ece.ucdavis.edu/~chuah/rubinet/paper/2008/mass08-wmeshmon.pdf\nhttps://obkio.com/blog/how-to-monitor-distributed-networks/","is_indexed":false,"status_text":"","due_date":"2025-09-15T00:00:00+00:00","status":"active","kanban_column":"in-progress","recurring_cadence":null,"background_agent_status":"paused","last_worked_on":"2025-05-28T11:06:08.592084+00:00","recurrence":null,"completed_at":null,"search_indexed_at":"2025-04-05T23:33:00.629172+00:00","search_updated_at":null,"project_id":"03bf2236-58bf-4882-aced-ec7d60905157","search_vector":"'2.4.3.2.2.2.2.1.1.1.1.1.1.1.1.1.1.1.1.1.1.1.1.1.1':1A 'across':29B 'adapt':22B 'core':7B 'develop':6B 'distribut':31B 'effici':3A,13B,28B 'ident':32B 'implement':2A 'includ':15B 'maintain':26B 'mechan':9B 'mesh':33B 'monitor':4A,8B,20B 'network':34B 'optim':23B,27B 'perform':16B 'resourc':18B 'strategi':24B 'system':5A,14B 'track':17B 'util':19B 'valid':12B","deleted_at":null,"project_team_id":null,"assignees":[],"assignee_ids":[],"is_personal_project":true,"is_due_today_or_past":false,"sort_bucket":3,"due_date_date":"2025-09-15","lex_key":null},{"id":"defabe71-bab3-48d2-a216-bd97a9557d94","created_at":"2025-02-03T05:03:35.482769+00:00","user_id":"56a9904f-fe57-4841-a3d0-bbf617a88fea","name":"2.4.3.2.2.2.2.1.1.1.1.1.1.1.1.1.1.1.1.1.1.1.1.1.1.1 Implement Monitoring Optimization System","importance":51,"context":"Develop core optimization mechanisms for the efficiency monitoring system, including performance tuning, resource allocation, and adaptive optimization strategies for maintaining optimal monitoring efficiency across the distributed identity mesh network.","ai_context":"Implement a monitoring optimization system for distributed identity mesh networks by combining:\n\n*   **Hybrid Monitoring:** Integrate centralized and distributed monitoring for a comprehensive view.\n*   **Dynamic Load Balancing:** Use algorithms that adapt to real-time network conditions for efficient traffic distribution.\n*   **Data Correlation:** Quickly identify patterns and root causes from diverse monitoring data.\n*   **Adaptive Monitoring:** Adjust monitoring granularity based on component criticality.\n*   **Scalability & Performance:** Design for network growth and monitor latency for optimal user experience.\n\n# Sources\nhttps://obkio.com/blog/how-to-monitor-distributed-networks/\nhttps://github.com/cilium/cilium\nhttps://www.youtube.com/watch?v=wLW3UzUw5rY","is_indexed":false,"status_text":"","due_date":"2025-09-15T00:00:00+00:00","status":"active","kanban_column":"in-progress","recurring_cadence":null,"background_agent_status":"paused","last_worked_on":"2025-05-28T11:05:24.426693+00:00","recurrence":null,"completed_at":null,"search_indexed_at":"2025-04-05T23:33:00.629172+00:00","search_updated_at":null,"project_id":"03bf2236-58bf-4882-aced-ec7d60905157","search_vector":"'2.4.3.2.2.2.2.1.1.1.1.1.1.1.1.1.1.1.1.1.1.1.1.1.1.1':1A 'across':29B 'adapt':21B 'alloc':19B 'core':7B 'develop':6B 'distribut':31B 'effici':12B,28B 'ident':32B 'implement':2A 'includ':15B 'maintain':25B 'mechan':9B 'mesh':33B 'monitor':3A,13B,27B 'network':34B 'optim':4A,8B,22B,26B 'perform':16B 'resourc':18B 'strategi':23B 'system':5A,14B 'tune':17B","deleted_at":null,"project_team_id":null,"assignees":[],"assignee_ids":[],"is_personal_project":true,"is_due_today_or_past":false,"sort_bucket":3,"due_date_date":"2025-09-15","lex_key":null},{"id":"043650f8-25e8-41a4-8d81-b6c664344e0f","created_at":"2025-02-03T05:03:47.464018+00:00","user_id":"56a9904f-fe57-4841-a3d0-bbf617a88fea","name":"2.4.3.2.2.2.2.1.1.1.1.1.1.1.1.1.1.1.1.1.1.1.1.1.1.1.1 Implement Optimization Feedback System","importance":50,"context":"Develop core feedback mechanisms for the monitoring optimization system, including performance analysis, adaptive response patterns, and real-time optimization adjustments for maintaining optimal monitoring efficiency across the distributed identity mesh network.","ai_context":"To implement the Optimization Feedback System:\n\n- **Develop Core Feedback Mechanisms:** Integrate performance analysis, distributed optimization, and real-time metric collection with security analytics.\n- **Implement Adaptive Response Patterns:** Use multipath routing protocols that consider link variability and support distributed decision-making.\n- **Consider Implementation Details:** For larger networks (over 30 nodes), explore network segmentation or dynamic mesh solutions. Account for data packet hopping and include identity, policy, posture, and dashboard layers in the security analytics framework.\n- **Infeasibility Detection:** Implement mechanisms to identify when optimization goals are not achievable.\n\n# Sources\nhttps://www.okta.com/identity-101/cybersecurity-mesh/\nhttps://www.exabeam.com/explainers/information-security/cybersecurity-mesh-csma-architecture-benefits-and-implementation/\nhttps://techlibrary.doodlelabs.com/large-network-optimization\nhttps://www.esecurityplanet.com/networks/cybersecurity-mesh-decentralized-identity-emerging-security-technology/\nhttps://www.microsoft.com/en-us/research/project/optimal-distributed-routing-protocols-wireless-mesh-networks/","is_indexed":false,"status_text":"","due_date":"2025-09-15T00:00:00+00:00","status":"active","kanban_column":"in-progress","recurring_cadence":null,"background_agent_status":"paused","last_worked_on":"2025-05-28T11:04:26.989845+00:00","recurrence":null,"completed_at":null,"search_indexed_at":"2025-04-05T23:33:00.629172+00:00","search_updated_at":null,"project_id":"03bf2236-58bf-4882-aced-ec7d60905157","search_vector":"'2.4.3.2.2.2.2.1.1.1.1.1.1.1.1.1.1.1.1.1.1.1.1.1.1.1.1':1A 'across':32B 'adapt':18B 'adjust':26B 'analysi':17B 'core':7B 'develop':6B 'distribut':34B 'effici':31B 'feedback':4A,8B 'ident':35B 'implement':2A 'includ':15B 'maintain':28B 'mechan':9B 'mesh':36B 'monitor':12B,30B 'network':37B 'optim':3A,13B,25B,29B 'pattern':20B 'perform':16B 'real':23B 'real-tim':22B 'respons':19B 'system':5A,14B 'time':24B","deleted_at":null,"project_team_id":null,"assignees":[],"assignee_ids":[],"is_personal_project":true,"is_due_today_or_past":false,"sort_bucket":3,"due_date_date":"2025-09-15","lex_key":null},{"id":"88cfdc19-0989-4251-aeee-b4454913af98","created_at":"2025-02-03T05:04:00.601534+00:00","user_id":"56a9904f-fe57-4841-a3d0-bbf617a88fea","name":"2.4.3.2.2.2.2.1.1.1.1.1.1.1.1.1.1.1.1.1.1.1.1.1.1.1.1.1 Implement Feedback Validation System","importance":49,"context":"Develop core validation mechanisms for the optimization feedback system, including performance verification, response pattern analysis, and adaptive validation strategies for maintaining optimal feedback reliability across the distributed identity mesh network.","ai_context":"The goal is to implement a robust feedback validation system for a distributed identity mesh network.\n\nHere's an approach:\n\n- **Core Validation:** Use a layered approach with unit/integration tests, and formal verification (e.g., Verdi) to guarantee correctness.\n- **Performance Verification:** Instrument performance benchmarking, and use canaries for new updates to monitor for deviations.\n- **Response Pattern Analysis:** Continuously analyze response patterns using adaptive algorithms to identify anomalies or drift.\n- **Adaptive Validation:** Use fault injection to verify system resilience, and leverage system transformers for modular validation logic.\n- **End-to-End Reliability:** Decouple application-level validation from fault-tolerance mechanisms, using formal semantics to prevent breaking validation properties.\n\n# Sources\nhttps://queue.acm.org/detail.cfm?id=2889274\nhttps://homes.cs.washington.edu/~ztatlock/pubs/verdi-wilcox-pldi15.pdf\nhttps://github.com/CaitieM20/TheVerificationOfDistributedSystem","is_indexed":false,"status_text":"","due_date":"2025-09-15T00:00:00+00:00","status":"active","kanban_column":"in-progress","recurring_cadence":null,"background_agent_status":"paused","last_worked_on":"2025-06-12T06:09:20.607052+00:00","recurrence":null,"completed_at":null,"search_indexed_at":"2025-04-05T23:33:00.629172+00:00","search_updated_at":null,"project_id":"03bf2236-58bf-4882-aced-ec7d60905157","search_vector":"'2.4.3.2.2.2.2.1.1.1.1.1.1.1.1.1.1.1.1.1.1.1.1.1.1.1.1.1':1A 'across':30B 'adapt':22B 'analysi':20B 'core':7B 'develop':6B 'distribut':32B 'feedback':3A,13B,28B 'ident':33B 'implement':2A 'includ':15B 'maintain':26B 'mechan':9B 'mesh':34B 'network':35B 'optim':12B,27B 'pattern':19B 'perform':16B 'reliabl':29B 'respons':18B 'strategi':24B 'system':5A,14B 'valid':4A,8B,23B 'verif':17B","deleted_at":null,"project_team_id":null,"assignees":[],"assignee_ids":[],"is_personal_project":true,"is_due_today_or_past":false,"sort_bucket":3,"due_date_date":"2025-09-15","lex_key":null},{"id":"a8921897-2c57-470f-b147-e45e46c3b140","created_at":"2025-02-03T05:04:25.325095+00:00","user_id":"56a9904f-fe57-4841-a3d0-bbf617a88fea","name":"2.4.3.2.2.2.2.1.1.1.1.1.1.1.1.1.1.1.1.1.1.1.1.1.1.1.1.1.1 Implement Validation Metrics System","importance":48,"context":"Develop core metric collection and analysis mechanisms for the feedback validation system, including performance indicators, reliability metrics, and validation measurements for maintaining optimal feedback quality across the distributed identity mesh network.","ai_context":"To implement a validation metrics system for a distributed identity mesh network:\n\n*   **Validate mTLS Traffic**: Confirm secure communication by checking for `tls=true` in connection logs and monitoring automatic mTLS enforcement within the mesh.\n*   **Measure Network Quality**: Use structure-based and weighted metrics for identity link networks (ILNs), focusing on larger networks (size three or bigger) to predict human assessment of entity links.\n*   **Integrate Observability**: Implement topology visualization, track service health, and set up comprehensive metrics collection.\n*   **Secure Key Establishment**: Verify efficient and secure key management crucial for distributed networks.\n*   **Monitor Performance**: Track latency, throughput, connection security, and entity resolution quality.\n\n# Sources\nhttps://linkerd.io/2-edge/tasks/validating-your-traffic/\nhttps://research.vu.nl/files/153350939/Network_metrics_for_assessing_the_quality_of_entity_resolution_between_multiple_datasets.pdf\nhttps://docs.openshift.com/dedicated/service_mesh/v2x/ossm-observability.html\nhttps://dl.acm.org/doi/10.1145/1868630.1868633\nhttps://wtit.com/f5-distributed-cloud-mesh/","is_indexed":false,"status_text":"","due_date":"2025-09-15T00:00:00+00:00","status":"active","kanban_column":"in-progress","recurring_cadence":null,"background_agent_status":"paused","last_worked_on":"2025-05-28T11:04:44.647212+00:00","recurrence":null,"completed_at":null,"search_indexed_at":"2025-04-05T23:33:00.629172+00:00","search_updated_at":null,"project_id":"03bf2236-58bf-4882-aced-ec7d60905157","search_vector":"'2.4.3.2.2.2.2.1.1.1.1.1.1.1.1.1.1.1.1.1.1.1.1.1.1.1.1.1.1':1A 'across':31B 'analysi':11B 'collect':9B 'core':7B 'develop':6B 'distribut':33B 'feedback':15B,29B 'ident':34B 'implement':2A 'includ':18B 'indic':20B 'maintain':27B 'measur':25B 'mechan':12B 'mesh':35B 'metric':4A,8B,22B 'network':36B 'optim':28B 'perform':19B 'qualiti':30B 'reliabl':21B 'system':5A,17B 'valid':3A,16B,24B","deleted_at":null,"project_team_id":null,"assignees":[],"assignee_ids":[],"is_personal_project":true,"is_due_today_or_past":false,"sort_bucket":3,"due_date_date":"2025-09-15","lex_key":null},{"id":"2c48a277-1340-4f45-a29d-06d8179e6a00","created_at":"2025-02-03T05:21:24.561767+00:00","user_id":"56a9904f-fe57-4841-a3d0-bbf617a88fea","name":"Implement Metric Collection System","importance":47,"context":"Develop core metric collection mechanisms including performance indicators, reliability measurements, and validation metrics for maintaining optimal feedback quality in the distributed identity mesh network.","ai_context":"Implement a metric collection system for the distributed identity mesh network focusing on performance, reliability, and validation.\n\nSteps:\n*   Collect request volume, latency, error rates, and resource utilization using a service mesh approach.\n*   Integrate with observability tools (e.g., Prometheus, Grafana) for real-time monitoring and historical analysis.\n*   Consider extending default wireless mesh metrics (like \"airtime\") with custom reliability or validation indicators.\n*   Ensure metrics support both on-demand and proactive routing strategies for auditability and optimal feedback.\n\n# Sources\nhttps://konghq.com/blog/learning-center/what-is-a-service-mesh\nhttps://www.ieee802.org/802_tutorials/06-November/802.11s_Tutorial_r5.pdf","is_indexed":false,"status_text":"","due_date":"2025-09-15T00:00:00+00:00","status":"active","kanban_column":"in-progress","recurring_cadence":null,"background_agent_status":"paused","last_worked_on":"2025-05-28T10:51:14.839212+00:00","recurrence":null,"completed_at":null,"search_indexed_at":"2025-04-05T23:32:00.760433+00:00","search_updated_at":null,"project_id":"34cae34f-02b4-4846-ac40-80513edfe421","search_vector":"'collect':3A,8B 'core':6B 'develop':5B 'distribut':25B 'feedback':21B 'ident':26B 'implement':1A 'includ':10B 'indic':12B 'maintain':19B 'measur':14B 'mechan':9B 'mesh':27B 'metric':2A,7B,17B 'network':28B 'optim':20B 'perform':11B 'qualiti':22B 'reliabl':13B 'system':4A 'valid':16B","deleted_at":null,"project_team_id":null,"assignees":[],"assignee_ids":[],"is_personal_project":true,"is_due_today_or_past":false,"sort_bucket":3,"due_date_date":"2025-09-15","lex_key":null},{"id":"663a2ffe-62db-4627-b027-c81de45e5d9d","created_at":"2025-02-03T05:21:44.586123+00:00","user_id":"56a9904f-fe57-4841-a3d0-bbf617a88fea","name":"Implement Collection Optimization System","importance":46,"context":"Develop core optimization mechanisms for metric collection, including performance tuning, resource allocation, and adaptive collection strategies for maintaining optimal data gathering efficiency across the distributed identity mesh network.","ai_context":"To implement a collection optimization system for your distributed identity mesh network:\n- **Ensure high data quality** through regular cleaning, verification, and automated monitoring.\n- **Micro-segment entities** based on characteristics and develop tailored collection approaches for each segment.\n- **Implement action scoring models** to calculate the expected payoff for different collection channels, incorporating risk factors, channel propensity, and costs.\n- **Follow a four-step implementation process**: assign entities to segments, evaluate with scoring models, compare payoffs across channels, and select the optimal strategy.\n- **Configure the system** rather than modifying it for flexibility and easier adaptation.\n\n# Sources\nhttps://www.tratta.io/blog/debt-collection-optimization-strategies\nhttps://www.fico.com/blogs/how-successfully-implement-your-new-collections-system\nhttps://support.sas.com/resources/papers/proceedings20/4301-2020.pdf","is_indexed":false,"status_text":"","due_date":"2025-09-15T00:00:00+00:00","status":"active","kanban_column":"in-progress","recurring_cadence":null,"background_agent_status":"paused","last_worked_on":"2025-05-28T11:00:47.133596+00:00","recurrence":null,"completed_at":null,"search_indexed_at":"2025-04-05T23:32:00.760433+00:00","search_updated_at":null,"project_id":"34cae34f-02b4-4846-ac40-80513edfe421","search_vector":"'across':27B 'adapt':18B 'alloc':16B 'collect':2A,11B,19B 'core':6B 'data':24B 'develop':5B 'distribut':29B 'effici':26B 'gather':25B 'ident':30B 'implement':1A 'includ':12B 'maintain':22B 'mechan':8B 'mesh':31B 'metric':10B 'network':32B 'optim':3A,7B,23B 'perform':13B 'resourc':15B 'strategi':20B 'system':4A 'tune':14B","deleted_at":null,"project_team_id":null,"assignees":[],"assignee_ids":[],"is_personal_project":true,"is_due_today_or_past":false,"sort_bucket":3,"due_date_date":"2025-09-15","lex_key":null}],"pagination":{"page":6,"page_size":30,"total_count":159,"total_pages":6,"has_next":false,"has_previous":true,"next_page":null,"previous_page":5},"due_today_or_overdue_count":77},"state":{"page":6,"page_size":30,"filters":{"project_filter_mode":"personal","status_filter":["active"]}}}